\relax 
\citation{Rishi_2018_google}
\citation{smartphonesinus}
\citation{maneesilp2012rfid,Maneesilp2011rfid,wang2007rfid,Liu20:InfoCom:Deeper,chen20:NSDI:eingerprint,wang19:ICNP:near,duan:enabling,shangguan16:MobiSys:design,Chen20:InfoCom:TagRay,Yang20:InfoCom:RF-Ear}
\citation{zhao20::trueheart,zhou19:IMWUT:limbmotion,Appavoo20:InfoCom:MagB,ren14:TMC:user,Chen20:InfoCom:TagRay,Yang20:InfoCom:RF-Ear}
\citation{ngo14:PR:largest,yeo20:CHI:watouch}
\citation{li07:PAMI:illumination,min12:ICPR:real,porter00:FSI:anatomical,hu12:TC:incremental,patel06:TE:video,wang11:PAMI:human,xu::xuedge,bowman17:ICRA:probabilistic,nixon2006automatic,biswas11:ARA:gesture,han05:CVPR:human,ibrahim16:VLCS:visible,hololens18::microsoft,rehg94:ECCC:visual,playstation18::sony}
\citation{orr2000smart,vera12:PAMI:comparative}
\citation{wu2005novel,korany19:MobiCom:xmodal,wang16:JCPUC:gait,liu20:InfoCom:continuous,liu20:InfoCom:continuous,shi17:SMNC:smart,zeng16:IPSN:wiwho,adib15:NSDI:multi,gjengset14:MobiCom:phaser,xiong13:NSDI:arraytrack,vasisht16:NSDI:decimeter,xiong15:MobiCom:tonetrack,qian2018:mobisys:widar2,joshi:NSDI:2015wideo,soltanaghaei18:MobiSys:multipath,kotaru15:SIGCOMM:spotfi,wang16:mobicom:lifs,huang20:TVT:towards,nandakumar14:wi,pu13:MobiCom:whole,sun15:MobiCom:widraw}
\citation{lin19:MobiCom:rebooting,cheng:acouradar,mao16:MobiCom:cat,peng12:TECS:beepbeep,zhou17:ENS:battracker,gupta12:HFCS:soundwave,nandakumar16:HFCS:fingerio,mao19:MobiCom:rnn,yun17:MobiSys:strata,chen17:InfoCom:echotrack,wang16:MobiCom:device,wang20:push,zhang17:CCS:hearing}
\@writefile{toc}{\contentsline {section}{\numberline {1}Introduction}{1}{}\protected@file@percent }
\newlabel{intro}{{1}{1}}
\@writefile{lof}{\contentsline {figure}{\numberline {1}{\ignorespaces \em  \small  Overview of our proposed research tasks, where the shaded boxes denote our exploratory attempts and those unshaded boxes denote our research activities undertaking in this project.}}{1}{}\protected@file@percent }
\newlabel{ResearchPlan}{{1}{1}}
\citation{Jie_2020_EchoSpot}
\citation{Jie_2020_EchoSensor}
\citation{Liu20:InfoCom:Deeper,chen20:NSDI:eingerprint,wang19:ICNP:near,duan:enabling,shangguan16:MobiSys:design,Chen20:InfoCom:TagRay,Yang20:InfoCom:RF-Ear}
\citation{zhao20::trueheart,zhou19:IMWUT:limbmotion,Appavoo20:InfoCom:MagB,ren14:TMC:user,Chen20:InfoCom:TagRay,Yang20:InfoCom:RF-Ear}
\citation{ngo14:PR:largest,yeo20:CHI:watouch}
\citation{Chen20:InfoCom:TagRay,Yang20:InfoCom:RF-Ear}
\citation{li07:PAMI:illumination,min12:ICPR:real,porter00:FSI:anatomical,hu12:TC:incremental,patel06:TE:video,wang11:PAMI:human}
\citation{xu::xuedge,bowman17:ICRA:probabilistic}
\citation{nixon2006automatic,biswas11:ARA:gesture,han05:CVPR:human,ibrahim16:VLCS:visible,hololens18::microsoft,rehg94:ECCC:visual,playstation18::sony}
\citation{orr2000smart,vera12:PAMI:comparative}
\citation{korany19:MobiCom:xmodal,wang16:JCPUC:gait,liu20:InfoCom:continuous,liu20:InfoCom:continuous,shi17:SMNC:smart,zeng16:IPSN:wiwho}
\citation{adib15:NSDI:multi,gjengset14:MobiCom:phaser,xiong13:NSDI:arraytrack,vasisht16:NSDI:decimeter,xiong15:MobiCom:tonetrack,qian2018:mobisys:widar2,joshi:NSDI:2015wideo,soltanaghaei18:MobiSys:multipath,kotaru15:SIGCOMM:spotfi,wang16:mobicom:lifs}
\citation{huang20:TVT:towards,nandakumar14:wi,pu13:MobiCom:whole,sun15:MobiCom:widraw}
\citation{yangmu20:infocom:muid,zhao2019mid,gu2019mmsense,ahmad18:RadarConf:vital,knudde17:EURAD:indoor,zhu15:MobiCom:reusing}
\citation{lin19:MobiCom:rebooting,cheng:acouradar,mao16:MobiCom:cat,peng12:TECS:beepbeep,zhou17:ENS:battracker}
\citation{gupta12:HFCS:soundwave,nandakumar16:HFCS:fingerio,mao19:MobiCom:rnn,yun17:MobiSys:strata,chen17:InfoCom:echotrack,wang16:MobiCom:device,wang20:push}
\citation{zhang17:CCS:hearing}
\citation{lu18:infocom:lippass}
\citation{chauhan17:MSAS:breathprint}
\citation{nandakumar17:IMWUT:covertband}
\citation{xu19:IMWUT:acousticid}
\@writefile{toc}{\contentsline {subsection}{\numberline {1.1}Current State of Knowledge}{4}{}\protected@file@percent }
\newlabel{sec:relatedwork}{{1.1}{4}}
\@writefile{toc}{\contentsline {subsection}{\numberline {1.2}Intellectual Merit}{4}{}\protected@file@percent }
\citation{Jie_2020_EchoSpot}
\@writefile{lof}{\contentsline {figure}{\numberline {2}{\ignorespaces The workflow of EchoSpot for localization.}}{5}{}\protected@file@percent }
\newlabel{EchoSpot}{{2}{5}}
\@writefile{toc}{\contentsline {section}{\numberline {2}Research Description}{5}{}\protected@file@percent }
\newlabel{plan}{{2}{5}}
\@writefile{toc}{\contentsline {subsection}{\numberline {2.1}EchoSpot: Localization via Acoustic Sensing}{5}{}\protected@file@percent }
\newlabel{subsec:finegrained}{{2.1}{5}}
\@writefile{toc}{\contentsline {subsubsection}{\numberline {2.1.1}Preliminary Results}{5}{}\protected@file@percent }
\citation{Jie_2020_EchoSpot}
\citation{Jie_2020_EchoSpot}
\citation{wax1984spatio}
\@writefile{lof}{\contentsline {figure}{\numberline {3}{\ignorespaces \small  Tracking the moving trajectory of a person.}}{6}{}\protected@file@percent }
\newlabel{Rectangle}{{3}{6}}
\@writefile{toc}{\contentsline {subsubsection}{\numberline {2.1.2}Open Problem and Research Items}{6}{}\protected@file@percent }
\citation{ramirez2004efficient}
\citation{hoshiba2018assessment}
\citation{frank1962phase}
\citation{aranganayagi2007clustering}
\citation{Lian2020Fall}
\@writefile{lof}{\contentsline {figure}{\numberline {4}{\ignorespaces The workflow of EchoRecognition for fall detection.}}{8}{}\protected@file@percent }
\newlabel{fig:falldetection}{{4}{8}}
\@writefile{toc}{\contentsline {subsection}{\numberline {2.2}EchoReco: Activity Recognition via Acoustic Sensing}{8}{}\protected@file@percent }
\newlabel{subsec:recognition}{{2.2}{8}}
<<<<<<< HEAD
\@writefile{toc}{\contentsline {subsubsection}{\numberline {2.2.1}Preliminary Results}{8}\protected@file@percent }
\citation{Lian2020Fall}
=======
\citation{Jie_2020_EchoSpot}
>>>>>>> 2f0f014abf8ae86a7c50f4a453b53f8cedc72eac
\citation{yun2017strata}
\@writefile{toc}{\contentsline {subsubsection}{\numberline {2.2.1}Preliminary Results}{9}{}\protected@file@percent }
\@writefile{lof}{\contentsline {figure}{\numberline {5}{\ignorespaces Performance at different environments.}}{9}{}\protected@file@percent }
\newlabel{env}{{5}{9}}
\@writefile{toc}{\contentsline {subsubsection}{\numberline {2.2.2}Open Problem and Research Items}{9}{}\protected@file@percent }
\citation{Jie_2020_EchoSpot}
\citation{Jie_2020_EchoSpot}
\citation{gupta12:HFCS:soundwave,nandakumar16:HFCS:fingerio,mao19:MobiCom:rnn,yun17:MobiSys:strata,chen17:InfoCom:echotrack,wang16:MobiCom:device,wang20:push}
\citation{yun2017strata}
\citation{household_security}
\newlabel{fall_s}{{6(a)}{10}}
\newlabel{sub@fall_s}{{(a)}{10}}
\newlabel{sit_s}{{6(b)}{10}}
\newlabel{sub@sit_s}{{(b)}{10}}
\newlabel{standup_s}{{6(c)}{10}}
\newlabel{sub@standup_s}{{(c)}{10}}
\newlabel{jump_s}{{6(d)}{10}}
\newlabel{sub@jump_s}{{(d)}{10}}
\@writefile{lof}{\contentsline {figure}{\numberline {6}{\ignorespaces Spectrogram of different activity}}{10}{}\protected@file@percent }
\@writefile{lof}{\contentsline {subfigure}{\numberline{(a)}{\ignorespaces {Fall}}}{10}{}\protected@file@percent }
\@writefile{lof}{\contentsline {subfigure}{\numberline{(b)}{\ignorespaces {Sitting down}}}{10}{}\protected@file@percent }
\@writefile{lof}{\contentsline {subfigure}{\numberline{(c)}{\ignorespaces {Standing up}}}{10}{}\protected@file@percent }
\@writefile{lof}{\contentsline {subfigure}{\numberline{(d)}{\ignorespaces {Jumping}}}{10}{}\protected@file@percent }
\newlabel{Spectrograms}{{6}{10}}
\@writefile{toc}{\contentsline {subsection}{\numberline {2.3}EchoAuth: Biometric Authentication via Acoustic Sensing}{10}\protected@file@percent }
\newlabel{subsec:auth}{{2.3}{10}}
\newlabel{Sec:Autentication}{{2.3}{10}}
\citation{Jie_2020_EchoSensor}
\citation{shannon1998communication}
\@writefile{lof}{\contentsline {figure}{\numberline {7}{\ignorespaces \small  The workflow of EchoAuth for intrusion detection purpose.}}{11}{}\protected@file@percent }
\newlabel{systemdesign}{{7}{11}}
<<<<<<< HEAD
\@writefile{lof}{\contentsline {figure}{\numberline {8}{\ignorespaces \small  Spectrogram of Doppler effect.}}{11}\protected@file@percent }
\newlabel{original spectrogram}{{8}{11}}
\@writefile{lof}{\contentsline {figure}{\numberline {9}{\ignorespaces \small  Spectrogram after interference/noise cancellation.}}{11}\protected@file@percent }
\newlabel{denoised Spectrogram}{{9}{11}}
\@writefile{lof}{\contentsline {figure}{\numberline {10}{\ignorespaces \small  Upper contour of the marked spectrogram.}}{11}\protected@file@percent }
\newlabel{pleg contour}{{10}{11}}
\@writefile{toc}{\contentsline {subsubsection}{\numberline {2.3.1}Preliminary Results}{11}\protected@file@percent }
=======
\@writefile{toc}{\contentsline {subsection}{\numberline {2.3}EchoAuth: Biometric Authentication via Acoustic Sensing}{11}{}\protected@file@percent }
\newlabel{subsec:auth}{{2.3}{11}}
\newlabel{Sec:Autentication}{{2.3}{11}}
\@writefile{toc}{\contentsline {subsubsection}{\numberline {2.3.1}Preliminary Results}{11}{}\protected@file@percent }
\citation{lawrance1977exponential}
>>>>>>> 2f0f014abf8ae86a7c50f4a453b53f8cedc72eac
\citation{Jie_2020_EchoSensor}
\citation{Xu_2017_radio,Hong_2016_WFID,Mao_2017_tensorbeat,XWang17ICDCS}
\citation{yangmu20:infocom:muid}
\citation{Du_2019_posterEchoAuth,Jie_2020_EchoSensor,zhang19:DSN:pseudo,zhang19:AsiaCCS:tweetscore}
<<<<<<< HEAD
=======
\@writefile{lof}{\contentsline {figure}{\numberline {8}{\ignorespaces \small  Spectrogram of Doppler effect.}}{12}{}\protected@file@percent }
\newlabel{original spectrogram}{{8}{12}}
\@writefile{lof}{\contentsline {figure}{\numberline {9}{\ignorespaces \small  Spectrogram after interference/noise cancellation.}}{12}{}\protected@file@percent }
\newlabel{denoised Spectrogram}{{9}{12}}
\@writefile{lof}{\contentsline {figure}{\numberline {10}{\ignorespaces \small  Upper contour of the marked spectrogram.}}{12}{}\protected@file@percent }
\newlabel{pleg contour}{{10}{12}}
\@writefile{toc}{\contentsline {subsubsection}{\numberline {2.3.2} Open Problems and Research Items}{12}{}\protected@file@percent }
>>>>>>> 2f0f014abf8ae86a7c50f4a453b53f8cedc72eac
\citation{zhao2019mid,wagner2017radar,almuzaini2011range}
\citation{yangmu20:infocom:muid,zhong2016wifi}
\citation{pegoraro2020multi,yangmu20:infocom:muid,zhao2019mid}
\@writefile{toc}{\contentsline {subsubsection}{\numberline {2.3.2} Open Problems and Research Items}{12}\protected@file@percent }
\citation{Jie_2020_EchoSensor}
\citation{Wang_2015_wifi,Du_2015_noise,Abdi_2010_principal}
\citation{Tzanetakis_2001_audio,Sardy_2001_denoising,Meurant_2012_wavelets,XWang17ICDCS}
\citation{chen06:ASLP:new}
\citation{vaisanen00:pat:method}
\citation{Erdogan:2016}
\citation{Jie_2020_EchoSensor,Jie_2020_EchoSpot}
\citation{fletcher2018effects}
\citation{leighton2016some}
\@writefile{toc}{\contentsline {subsection}{\numberline {2.4}Experiments and Evaluation}{14}{}\protected@file@percent }
\citation{reu21:web}
<<<<<<< HEAD
\citation{bookchapter1}
\citation{bookchapter2}
\@writefile{toc}{\contentsline {subsection}{\numberline {2.5}Project Timeline}{15}\protected@file@percent }
\@writefile{lot}{\contentsline {table}{\numberline {1}{\ignorespaces Breakdown of project tasks }}{15}\protected@file@percent }
\newlabel{tab:timeline}{{1}{15}}
\@writefile{toc}{\contentsline {section}{\numberline {3}Broader Impacts}{15}\protected@file@percent }
=======
\@writefile{toc}{\contentsline {subsection}{\numberline {2.5}Project Timeline}{15}{}\protected@file@percent }
\@writefile{lot}{\contentsline {table}{\numberline {1}{\ignorespaces Breakdown of project tasks }}{15}{}\protected@file@percent }
\newlabel{tab:timeline}{{1}{15}}
\@writefile{toc}{\contentsline {section}{\numberline {3}Broader Impacts}{15}{}\protected@file@percent }
\citation{bookchapter1}
\citation{bookchapter2}
>>>>>>> 2f0f014abf8ae86a7c50f4a453b53f8cedc72eac
\citation{Scienceday2019}
\citation{zhang19:codaspy:honeypot,zhang19:DSN:pseudo,zhang19:AsiaCCS:tweetscore,zhang19:ESORICS:Poisoning,wu21:PAKDD:incorporating,zhang21:ACSAC:outlier,lou21:USENIX:messy,zhang:CCS:ReverseAttack}
\@writefile{toc}{\contentsline {section}{\numberline {4}Results from Prior NSF Support}{16}\protected@file@percent }
\citation{shu16:ICCD:relinquishment,xiang16::model,xiang17:ICS:carpool,shu17:ITC:compressed,shu17:ITC:nuda,sigdel18:TPDS:coalescing,xiang19:ITC:bufferless,srinuan20:TPDS:cooperative}
\bibstyle{IEEEtran}
\bibdata{main}
\bibcite{Rishi_2018_google}{1}
\bibcite{smartphonesinus}{2}
\bibcite{maneesilp2012rfid}{3}
\bibcite{Maneesilp2011rfid}{4}
\bibcite{wang2007rfid}{5}
\bibcite{Liu20:InfoCom:Deeper}{6}
\bibcite{chen20:NSDI:eingerprint}{7}
\@writefile{toc}{\contentsline {section}{\numberline {4}Results from Prior NSF Support}{17}{}\protected@file@percent }
\bibcite{wang19:ICNP:near}{8}
\bibcite{duan:enabling}{9}
\bibcite{shangguan16:MobiSys:design}{10}
\bibcite{Chen20:InfoCom:TagRay}{11}
\bibcite{Yang20:InfoCom:RF-Ear}{12}
\bibcite{zhao20::trueheart}{13}
\bibcite{zhou19:IMWUT:limbmotion}{14}
\bibcite{Appavoo20:InfoCom:MagB}{15}
\bibcite{ren14:TMC:user}{16}
\bibcite{ngo14:PR:largest}{17}
\bibcite{yeo20:CHI:watouch}{18}
\bibcite{li07:PAMI:illumination}{19}
\bibcite{min12:ICPR:real}{20}
\bibcite{porter00:FSI:anatomical}{21}
\bibcite{hu12:TC:incremental}{22}
\bibcite{patel06:TE:video}{23}
\bibcite{wang11:PAMI:human}{24}
\bibcite{xu::xuedge}{25}
\bibcite{bowman17:ICRA:probabilistic}{26}
\bibcite{nixon2006automatic}{27}
\bibcite{biswas11:ARA:gesture}{28}
\bibcite{han05:CVPR:human}{29}
\bibcite{ibrahim16:VLCS:visible}{30}
\bibcite{hololens18::microsoft}{31}
\bibcite{rehg94:ECCC:visual}{32}
\bibcite{playstation18::sony}{33}
\bibcite{orr2000smart}{34}
\bibcite{vera12:PAMI:comparative}{35}
\bibcite{wu2005novel}{36}
\bibcite{korany19:MobiCom:xmodal}{37}
\bibcite{wang16:JCPUC:gait}{38}
\bibcite{liu20:InfoCom:continuous}{39}
\bibcite{shi17:SMNC:smart}{40}
\bibcite{zeng16:IPSN:wiwho}{41}
\bibcite{adib15:NSDI:multi}{42}
\bibcite{gjengset14:MobiCom:phaser}{43}
\bibcite{xiong13:NSDI:arraytrack}{44}
\bibcite{vasisht16:NSDI:decimeter}{45}
\bibcite{xiong15:MobiCom:tonetrack}{46}
\bibcite{qian2018:mobisys:widar2}{47}
\bibcite{joshi:NSDI:2015wideo}{48}
\bibcite{soltanaghaei18:MobiSys:multipath}{49}
\bibcite{kotaru15:SIGCOMM:spotfi}{50}
\bibcite{wang16:mobicom:lifs}{51}
\bibcite{huang20:TVT:towards}{52}
\bibcite{nandakumar14:wi}{53}
\bibcite{pu13:MobiCom:whole}{54}
\bibcite{sun15:MobiCom:widraw}{55}
\bibcite{lin19:MobiCom:rebooting}{56}
\bibcite{cheng:acouradar}{57}
\bibcite{mao16:MobiCom:cat}{58}
\bibcite{peng12:TECS:beepbeep}{59}
\bibcite{zhou17:ENS:battracker}{60}
\bibcite{gupta12:HFCS:soundwave}{61}
\bibcite{nandakumar16:HFCS:fingerio}{62}
\bibcite{mao19:MobiCom:rnn}{63}
\bibcite{yun17:MobiSys:strata}{64}
\bibcite{chen17:InfoCom:echotrack}{65}
\bibcite{wang16:MobiCom:device}{66}
\bibcite{wang20:push}{67}
\bibcite{zhang17:CCS:hearing}{68}
\bibcite{Jie_2020_EchoSpot}{69}
\bibcite{Jie_2020_EchoSensor}{70}
\bibcite{yangmu20:infocom:muid}{71}
\bibcite{zhao2019mid}{72}
\bibcite{gu2019mmsense}{73}
\bibcite{ahmad18:RadarConf:vital}{74}
\bibcite{knudde17:EURAD:indoor}{75}
\bibcite{zhu15:MobiCom:reusing}{76}
\bibcite{lu18:infocom:lippass}{77}
\bibcite{chauhan17:MSAS:breathprint}{78}
\bibcite{nandakumar17:IMWUT:covertband}{79}
\bibcite{xu19:IMWUT:acousticid}{80}
\bibcite{wax1984spatio}{81}
\bibcite{ramirez2004efficient}{82}
\bibcite{hoshiba2018assessment}{83}
\bibcite{frank1962phase}{84}
\bibcite{aranganayagi2007clustering}{85}
\bibcite{Lian2020Fall}{86}
\bibcite{yun2017strata}{87}
\bibcite{household_security}{88}
\bibcite{shannon1998communication}{89}
\bibcite{lawrance1977exponential}{90}
\bibcite{Xu_2017_radio}{91}
\bibcite{Hong_2016_WFID}{92}
\bibcite{Mao_2017_tensorbeat}{93}
\bibcite{XWang17ICDCS}{94}
\bibcite{Du_2019_posterEchoAuth}{95}
\bibcite{zhang19:DSN:pseudo}{96}
\bibcite{zhang19:AsiaCCS:tweetscore}{97}
\bibcite{wagner2017radar}{98}
\bibcite{almuzaini2011range}{99}
\bibcite{zhong2016wifi}{100}
\bibcite{pegoraro2020multi}{101}
\bibcite{Wang_2015_wifi}{102}
\bibcite{Du_2015_noise}{103}
\bibcite{Abdi_2010_principal}{104}
\bibcite{Tzanetakis_2001_audio}{105}
\bibcite{Sardy_2001_denoising}{106}
\bibcite{Meurant_2012_wavelets}{107}
\bibcite{chen06:ASLP:new}{108}
\bibcite{vaisanen00:pat:method}{109}
\bibcite{Erdogan:2016}{110}
\bibcite{fletcher2018effects}{111}
\bibcite{leighton2016some}{112}
\bibcite{reu21:web}{113}
\bibcite{bookchapter1}{114}
\bibcite{bookchapter2}{115}
\bibcite{Scienceday2019}{116}
\bibcite{zhang19:codaspy:honeypot}{117}
\bibcite{zhang19:ESORICS:Poisoning}{118}
\bibcite{wu21:PAKDD:incorporating}{119}
\bibcite{zhang21:ACSAC:outlier}{120}
\bibcite{lou21:USENIX:messy}{121}
\bibcite{zhang:CCS:ReverseAttack}{122}
\bibcite{shu16:ICCD:relinquishment}{123}
\bibcite{xiang16::model}{124}
\bibcite{xiang17:ICS:carpool}{125}
\bibcite{shu17:ITC:compressed}{126}
\bibcite{shu17:ITC:nuda}{127}
\bibcite{sigdel18:TPDS:coalescing}{128}
\bibcite{xiang19:ITC:bufferless}{129}
\bibcite{srinuan20:TPDS:cooperative}{130}
\gdef \@abspage@last{26}
